id,location,day,start_t,end_t,s3_key,description
1,lab,20150617,1434575489071,1434575694459,lab/20150617/1.mp4,"Testing 3 different positions for the back device. On Aditya.
Walking, sitting, dead lift, squat, lift over shoulder. D5: upper back, D10: lower back, D7: hip"
2,lab,20150617,1434575985513,1434576239201,lab/20150617/2.mp4,"Testing 3 different positions for the back device. On Matt.
Walking, sitting, dead lift, squat, lift over shoulder. D5: upper back, D10: lower back, D7: hip"
3,lab,20150617,1434576432711,1434576674281,lab/20150617/3.mp4,"Testing 3 different positions for the back device. On Haytham.
Walking, sitting, dead lift, squat, lift over shoulder. D5: upper back, D10: lower back, D7: hip"
4,lab,20150617,1434576886240,1434577029228,lab/20150617/4.mp4,"Testing 3 different positions for the back device. On Alex Siaba.
Walking, sitting, dead lift, squat, lift over shoulder. D5: upper back, D10: lower back, D7: hip"
5,lab,20150617,1434577498758,1434577662889,lab/20150617/5.mp4,"Testing 3 different positions for the back device. On Enrique.
Walking, sitting, dead lift, squat, lift over shoulder. D5: upper back, D10: lower back, D7: hip"

